# Blender v2.83.5 OBJ File: ''
# www.blender.org
o Icosphere
v -0.072792 3.175975 0.224037
v -0.022774 2.093186 0.026600
v 0.190578 3.175975 0.138461
v 0.723607 2.982699 0.525725
v 0.850648 2.904182 0.000000
v -0.235568 3.175976 0.000000
v -0.195397 2.093186 -0.210995
v -0.302086 2.093186 -0.064152
v -0.072792 3.175975 -0.224037
v -0.022774 2.093186 -0.154905
v -0.195397 2.093186 0.082690
v 0.951058 3.429918 0.309013
v -0.276388 2.982698 0.850649
v 0.262869 2.904181 0.809012
v 0.000000 3.429918 1.000000
v -0.894426 2.982703 0.000000
v -0.688189 2.904182 0.499997
v -0.951058 3.429918 0.309013
v -0.276388 2.982698 -0.850649
v -0.688189 2.904182 -0.499997
v -0.587786 3.429918 -0.809017
v 0.723607 2.982699 -0.525725
v 0.262869 2.904181 -0.809012
v 0.587786 3.429918 -0.809017
v 0.587786 3.429918 0.809017
v -0.587786 3.429918 0.809017
v -0.951058 3.429918 -0.309013
v 0.000000 3.429918 -1.000000
v 0.951058 3.429918 -0.309013
v 0.276388 3.877138 0.850649
v 0.688189 3.955655 0.499997
v 0.162456 4.280573 0.499995
v -0.723607 3.877138 0.525725
v -0.262869 3.955656 0.809012
v -0.425323 4.280572 0.309011
v -0.723607 3.877138 -0.525725
v -0.850648 3.955654 0.000000
v -0.425323 4.280572 -0.309011
v 0.276388 3.877138 -0.850649
v -0.262869 3.955656 -0.809012
v 0.162456 4.280573 -0.499995
v 0.894426 3.877134 0.000000
v 0.688189 3.955655 -0.499997
v 0.525730 4.280570 0.000000
v 0.000000 4.429918 0.000000
v 0.190578 3.175975 -0.138461
v -0.091438 0.679297 -0.000195
v 0.081185 0.679297 -0.056285
v -0.198127 0.679297 -0.147037
v 0.081185 0.679297 -0.237790
v -0.091438 0.679297 -0.293880
v -0.005204 -0.141820 -0.137432
v -0.177827 -0.141820 -0.193522
v -0.284516 -0.141820 -0.046680
v -0.177827 -0.141820 0.100163
v -0.005204 -0.141820 0.044073
v -0.130116 -0.185681 -0.046680
vt 0.530119 0.936633
vt 0.529910 0.915094
vt 0.530027 0.934818
vt 0.600588 0.603500
vt 0.601820 0.608179
vt 0.601195 0.618907
vt 0.529872 0.940228
vt 0.529950 0.914561
vt 0.529925 0.914818
vt 0.529670 0.936097
vt 0.529927 0.914671
vt 0.529899 0.915177
vt 0.600214 0.611153
vt 0.598567 0.587523
vt 0.600025 0.588061
vt 0.599123 0.554988
vt 0.597336 0.618907
vt 0.597351 0.603069
vt 0.598014 0.611237
vt 0.598567 0.650291
vt 0.597351 0.634745
vt 0.598259 0.644702
vt 0.600588 0.634314
vt 0.600025 0.649753
vt 0.599639 0.644811
vt 0.599639 0.593004
vt 0.598259 0.593113
vt 0.598014 0.626577
vt 0.599123 0.682826
vt 0.600214 0.626661
vt 0.599357 0.591154
vt 0.599587 0.606562
vt 0.599300 0.606813
vt 0.598559 0.605901
vt 0.599138 0.594404
vt 0.598883 0.611843
vt 0.598559 0.631913
vt 0.598499 0.618907
vt 0.598883 0.625971
vt 0.599357 0.646660
vt 0.599138 0.643410
vt 0.599300 0.631001
vt 0.599813 0.618907
vt 0.599587 0.631252
vt 0.599465 0.618907
vt 0.599166 0.618907
vt 0.601820 0.629635
vt 0.598100 0.637149
vt 0.595948 0.618907
vt 0.598100 0.600666
vt 0.529805 0.934577
vt 0.530039 0.854115
vt 0.530044 0.854094
vt 0.530057 0.854181
vt 0.530052 0.854147
vt 0.530052 0.854204
vt 0.530088 0.833461
vt 0.530117 0.833304
vt 0.530119 0.832887
vt 0.530073 0.832796
vt 0.530059 0.833162
vt 0.530095 0.831148
vn 0.3052 -0.1572 0.9392
vn -0.3715 -0.9271 0.0487
vn -0.8061 0.0842 -0.5857
vn 0.3087 -0.0464 -0.9500
vn -0.8089 0.0149 0.5877
vn 0.9050 -0.3304 0.2680
vn 0.0247 -0.3304 0.9435
vn -0.8897 -0.3304 0.3151
vn -0.5746 -0.3304 -0.7488
vn 0.5346 -0.3304 -0.7779
vn 0.8026 -0.1256 0.5831
vn -0.3066 -0.1256 0.9435
vn -0.9921 -0.1256 0.0000
vn -0.3066 -0.1256 -0.9435
vn 0.8026 -0.1256 -0.5831
vn 0.4089 0.6617 0.6284
vn -0.4713 0.6617 0.5831
vn -0.7002 0.6617 -0.2680
vn 0.0385 0.6617 -0.7488
vn 0.7240 0.6617 -0.1947
vn 0.2680 0.9435 -0.1947
vn 0.4911 0.7947 -0.3568
vn 0.4089 0.6617 -0.6284
vn -0.1024 0.9435 -0.3151
vn -0.1876 0.7947 -0.5773
vn -0.4713 0.6617 -0.5831
vn -0.3313 0.9435 0.0000
vn -0.6071 0.7947 0.0000
vn -0.7002 0.6617 0.2680
vn -0.1024 0.9435 0.3151
vn -0.1876 0.7947 0.5773
vn 0.0385 0.6617 0.7488
vn 0.2680 0.9435 0.1947
vn 0.4911 0.7947 0.3568
vn 0.7240 0.6617 0.1947
vn 0.8897 0.3304 -0.3151
vn 0.7947 0.1876 -0.5773
vn 0.5746 0.3304 -0.7488
vn -0.0247 0.3304 -0.9435
vn -0.3035 0.1876 -0.9342
vn -0.5346 0.3304 -0.7779
vn -0.9050 0.3304 -0.2680
vn -0.9822 0.1876 0.0000
vn -0.9050 0.3304 0.2680
vn -0.5346 0.3304 0.7779
vn -0.3035 0.1876 0.9342
vn -0.0247 0.3304 0.9435
vn 0.5746 0.3304 0.7488
vn 0.7947 0.1876 0.5773
vn 0.8897 0.3304 0.3151
vn 0.3066 0.1256 -0.9435
vn 0.3035 -0.1876 -0.9342
vn 0.0247 -0.3304 -0.9435
vn -0.8026 0.1256 -0.5831
vn -0.7947 -0.1876 -0.5773
vn -0.8897 -0.3304 -0.3151
vn -0.8026 0.1256 0.5831
vn -0.7947 -0.1876 0.5773
vn -0.5746 -0.3304 0.7488
vn 0.3066 0.1256 0.9435
vn 0.3035 -0.1876 0.9342
vn 0.5346 -0.3304 0.7779
vn 0.9921 0.1256 0.0000
vn 0.9822 -0.1876 0.0000
vn 0.9050 -0.3304 -0.2680
vn -0.0685 -0.9271 0.3684
vn -0.1177 -0.9247 0.3621
vn -0.1611 -0.9271 0.3383
vn 0.3292 -0.9271 0.1790
vn 0.3080 -0.9247 0.2238
vn 0.2720 -0.9271 0.2578
vn 0.2720 -0.9271 -0.2578
vn 0.3080 -0.9247 -0.2238
vn 0.3292 -0.9271 -0.1790
vn -0.3715 -0.9271 -0.0487
vn -0.3807 -0.9247 0.0000
vn 0.9811 -0.1933 0.0000
vn -0.1611 -0.9271 -0.3383
vn -0.1177 -0.9247 -0.3621
vn -0.0685 -0.9271 -0.3684
vn 0.3089 -0.0330 0.9505
vn -0.8088 -0.0250 -0.5876
vn 0.9973 0.0733 0.0000
vn 0.3081 0.0782 -0.9481
vn -0.8055 -0.0935 0.5852
vn 0.3057 -0.1471 -0.9407
vn -0.7992 0.1551 0.5807
vn 0.3079 0.0834 0.9477
vn -0.8089 0.0133 -0.5877
vn 0.9945 -0.1046 0.0000
vn 0.1024 -0.9435 0.3151
vn -0.2680 -0.9435 0.1947
vn -0.2680 -0.9435 -0.1947
vn 0.1024 -0.9435 -0.3151
vn 0.3313 -0.9435 0.0000
s 1
f 1/1/1 2/2/1 3/3/1
f 4/4/2 3/5/2 5/6/2
f 6/7/3 7/8/3 8/9/3
f 9/10/4 10/11/4 7/8/4
f 6/7/5 11/12/5 1/1/5
f 4/4/6 5/6/6 12/13/6
f 13/14/7 14/15/7 15/16/7
f 16/17/8 17/18/8 18/19/8
f 19/20/9 20/21/9 21/22/9
f 22/23/10 23/24/10 24/25/10
f 4/4/11 12/13/11 25/26/11
f 13/14/12 15/16/12 26/27/12
f 16/17/13 18/19/13 27/28/13
f 19/20/14 21/22/14 28/29/14
f 22/23/15 24/25/15 29/30/15
f 30/31/16 31/32/16 32/33/16
f 33/34/17 34/35/17 35/36/17
f 36/37/18 37/38/18 38/39/18
f 39/40/19 40/41/19 41/42/19
f 42/43/20 43/44/20 44/45/20
f 44/45/21 41/42/21 45/46/21
f 44/45/22 43/44/22 41/42/22
f 43/44/23 39/40/23 41/42/23
f 41/42/24 38/39/24 45/46/24
f 41/42/25 40/41/25 38/39/25
f 40/41/26 36/37/26 38/39/26
f 38/39/27 35/36/27 45/46/27
f 38/39/28 37/38/28 35/36/28
f 37/38/29 33/34/29 35/36/29
f 35/36/30 32/33/30 45/46/30
f 35/36/31 34/35/31 32/33/31
f 34/35/32 30/31/32 32/33/32
f 32/33/33 44/45/33 45/46/33
f 32/33/34 31/32/34 44/45/34
f 31/32/35 42/43/35 44/45/35
f 29/30/36 43/44/36 42/43/36
f 29/30/37 24/25/37 43/44/37
f 24/25/38 39/40/38 43/44/38
f 28/29/39 40/41/39 39/40/39
f 28/29/40 21/22/40 40/41/40
f 21/22/41 36/37/41 40/41/41
f 27/28/42 37/38/42 36/37/42
f 27/28/43 18/19/43 37/38/43
f 18/19/44 33/34/44 37/38/44
f 26/27/45 34/35/45 33/34/45
f 26/27/46 15/16/46 34/35/46
f 15/16/47 30/31/47 34/35/47
f 25/26/48 31/32/48 30/31/48
f 25/26/49 12/13/49 31/32/49
f 12/13/50 42/43/50 31/32/50
f 24/25/51 28/29/51 39/40/51
f 24/25/52 23/24/52 28/29/52
f 23/24/53 19/20/53 28/29/53
f 21/22/54 27/28/54 36/37/54
f 21/22/55 20/21/55 27/28/55
f 20/21/56 16/17/56 27/28/56
f 18/19/57 26/27/57 33/34/57
f 18/19/58 17/18/58 26/27/58
f 17/18/59 13/14/59 26/27/59
f 15/16/60 25/26/60 30/31/60
f 15/16/61 14/15/61 25/26/61
f 14/15/62 4/4/62 25/26/62
f 12/13/63 29/30/63 42/43/63
f 12/13/64 5/6/64 29/30/64
f 5/6/65 22/23/65 29/30/65
f 46/47/66 23/24/66 22/23/66
f 46/47/67 9/48/67 23/24/67
f 9/48/68 19/20/68 23/24/68
f 9/48/69 20/21/69 19/20/69
f 9/48/70 6/49/70 20/21/70
f 6/49/71 16/17/71 20/21/71
f 6/49/72 17/18/72 16/17/72
f 6/49/73 1/50/73 17/18/73
f 1/50/74 13/14/74 17/18/74
f 5/6/75 46/47/75 22/23/75
f 5/6/76 3/5/76 46/47/76
f 46/51/77 2/2/77 10/11/77
f 1/50/78 14/15/78 13/14/78
f 1/50/79 3/5/79 14/15/79
f 3/5/80 4/4/80 14/15/80
f 2/2/81 47/52/81 48/53/81
f 7/8/82 49/54/82 8/9/82
f 10/11/83 48/53/83 50/55/83
f 10/11/84 51/56/84 7/8/84
f 8/9/85 47/52/85 11/12/85
f 51/56/86 52/57/86 53/58/86
f 47/52/87 54/59/87 55/60/87
f 47/52/88 56/61/88 48/53/88
f 49/54/89 53/58/89 54/59/89
f 48/53/90 52/57/90 50/55/90
f 57/62/91 56/61/91 55/60/91
f 57/62/92 55/60/92 54/59/92
f 57/62/93 54/59/93 53/58/93
f 57/62/94 53/58/94 52/57/94
f 56/61/95 57/62/95 52/57/95
f 1/1/1 11/12/1 2/2/1
f 6/7/3 9/10/3 7/8/3
f 9/10/4 46/51/4 10/11/4
f 6/7/5 8/9/5 11/12/5
f 46/51/77 3/3/77 2/2/77
f 2/2/81 11/12/81 47/52/81
f 7/8/82 51/56/82 49/54/82
f 10/11/83 2/2/83 48/53/83
f 10/11/84 50/55/84 51/56/84
f 8/9/85 49/54/85 47/52/85
f 51/56/86 50/55/86 52/57/86
f 47/52/87 49/54/87 54/59/87
f 47/52/88 55/60/88 56/61/88
f 49/54/89 51/56/89 53/58/89
f 48/53/90 56/61/90 52/57/90
