# Blender v2.83.5 OBJ File: ''
# www.blender.org
o Plane.017
v 0.668040 -3.000000 0.668040
v -2.668040 -3.000000 -2.668040
v -2.668040 -3.000000 2.668040
v 0.000000 -0.000000 -0.000000
v 2.668040 -3.000000 -2.668040
v -2.000000 0.000000 -2.000000
v 2.000000 0.000000 -2.000000
v -2.000000 -0.000000 2.000000
vt 0.545835 0.822890
vt 0.524477 0.911485
vt 0.524477 0.822890
vt 0.545835 0.822890
vt 0.545835 0.911485
vt 0.524477 0.911485
vt 0.545835 0.911485
vt 0.524477 0.822890
vn 0.0000 1.0000 0.0000
vn -0.7869 -0.1731 -0.5923
vn -0.7828 -0.1619 -0.6008
vn -0.8203 -0.2922 -0.4918
vn 0.9761 -0.2174 0.0000
vn 0.0000 -0.2174 0.9761
vn -0.5916 -0.1768 -0.7866
vn -0.5986 -0.1865 -0.7790
vn -0.5127 -0.0763 -0.8552
vn -0.7071 0.0000 -0.7071
vn -0.6745 -0.3004 -0.6745
s 1
f 1/1/1 2/2/1 3/3/1
f 4/4/2 5/5/3 1/1/4
f 6/6/5 3/3/5 2/2/5
f 7/7/6 2/2/6 5/5/6
f 8/8/7 1/1/8 3/3/9
f 1/1/1 5/5/1 2/2/1
f 4/4/2 7/7/10 5/5/3
f 6/6/5 8/8/5 3/3/5
f 7/7/6 6/6/6 2/2/6
f 8/8/7 4/4/11 1/1/8
