# Blender v2.83.5 OBJ File: ''
# www.blender.org
o Plane.024
v 0.668040 -3.000000 0.668040
v -2.668040 -3.000000 -2.668040
v -2.000000 -3.000000 2.000000
v 0.000000 0.000000 0.000000
v 2.000000 -3.000000 -2.000000
v -2.000000 0.000000 -2.000000
v 2.000000 0.000000 -2.000000
v -2.000000 -0.000000 2.000000
vt 0.545835 0.822890
vt 0.524477 0.911485
vt 0.524477 0.822890
vt 0.545835 0.822890
vt 0.545835 0.911485
vt 0.524477 0.911485
vt 0.545835 0.911485
vt 0.524477 0.822890
vn 0.0000 1.0000 -0.0000
vn -0.8001 -0.1455 -0.5819
vn -0.8056 -0.1561 -0.5715
vn -0.8573 -0.2862 -0.4280
vn 0.9887 -0.1200 -0.0900
vn 0.9953 -0.0775 -0.0581
vn 0.9727 -0.1856 -0.1392
vn -0.0904 -0.0804 0.9927
vn -0.0604 -0.1266 0.9901
vn -0.1417 0.0000 0.9899
vn -0.5784 -0.1592 -0.8000
vn -0.5701 -0.1482 -0.8081
vn -0.4467 0.0000 -0.8947
vn -0.7071 -0.0000 -0.7071
vn 1.0000 0.0000 0.0000
vn 0.0000 -0.2174 0.9761
vn -0.6745 -0.3004 -0.6745
s 1
f 1/1/1 2/2/1 3/3/1
f 4/4/2 5/5/3 1/1/4
f 6/6/5 3/3/6 2/2/7
f 7/7/8 2/2/9 5/5/10
f 8/8/11 1/1/12 3/3/13
f 1/1/1 5/5/1 2/2/1
f 4/4/2 7/7/14 5/5/3
f 6/6/5 8/8/15 3/3/6
f 7/7/8 6/6/16 2/2/9
f 8/8/11 4/4/17 1/1/12
