# Blender v2.83.5 OBJ File: ''
# www.blender.org
o Grid
v -2.000000 0.000000 2.000000
v -1.555556 0.000000 2.000000
v -1.111111 0.000000 2.000000
v -0.666667 0.000000 2.000000
v -0.222222 0.000025 2.000000
v 0.222222 0.000025 2.000000
v 0.666667 0.000000 2.000000
v 1.111111 0.000000 2.000000
v 1.555556 0.000000 2.000000
v 2.000000 0.000000 2.000000
v -2.000000 0.000000 1.555556
v -1.555556 0.000000 1.555556
v -1.111111 0.007053 1.555556
v -0.666667 1.314501 1.555556
v -0.222222 0.382520 1.555556
v 0.222222 0.382520 1.555556
v 0.666667 1.314501 1.555556
v 1.111111 0.007053 1.555556
v 1.555556 0.000000 1.555556
v 2.000000 0.000000 1.555556
v -2.000000 0.000000 1.111111
v -1.555556 0.007053 1.111111
v -1.111111 0.382520 1.111111
v -0.666667 0.000000 1.111111
v -0.222222 0.000000 1.111111
v 0.222222 0.000000 1.111111
v 0.666667 0.000000 1.111111
v 1.111111 0.382520 1.111111
v 1.555556 0.007053 1.111111
v 2.000000 0.000000 1.111111
v -2.000000 0.000000 0.666667
v -1.555556 1.314501 0.666667
v -1.111111 0.000000 0.666667
v -0.666667 0.000000 0.666667
v -0.222222 0.000000 0.666667
v 0.222222 0.000000 0.666667
v 0.666667 0.000000 0.666667
v 1.111111 0.000000 0.666667
v 1.555556 1.314501 0.666667
v 2.000000 0.000000 0.666667
v -2.000000 0.000025 0.222222
v -1.555556 0.382520 0.222222
v -1.111111 0.000000 0.222222
v -0.666667 0.000000 0.222222
v -0.023803 1.914574 0.023803
v 0.023803 1.914574 0.023803
v 0.666667 0.000000 0.222222
v 1.111111 0.000000 0.222222
v 1.555556 0.382520 0.222222
v 2.000000 0.000025 0.222222
v -2.000000 0.000025 -0.222222
v -1.555556 0.382520 -0.222222
v -1.111111 0.000000 -0.222222
v -0.666667 0.000000 -0.222222
v -0.023803 1.914574 -0.023803
v 0.023803 1.914574 -0.023803
v 0.666667 0.000000 -0.222222
v 1.111111 0.000000 -0.222222
v 1.555556 0.382520 -0.222222
v 2.000000 0.000025 -0.222222
v -2.000000 0.000000 -0.666667
v -1.555556 1.314501 -0.666667
v -1.111111 0.000000 -0.666667
v -0.666667 0.000000 -0.666667
v -0.222222 0.000000 -0.666667
v 0.222222 0.000000 -0.666667
v 0.666667 0.000000 -0.666667
v 1.111111 0.000000 -0.666667
v 1.555556 1.314501 -0.666667
v 2.000000 0.000000 -0.666667
v -2.000000 0.000000 -1.111111
v -1.555556 0.007053 -1.111111
v -1.111111 0.382520 -1.111111
v -0.666667 0.000000 -1.111111
v -0.222222 0.000000 -1.111111
v 0.222222 0.000000 -1.111111
v 0.666667 0.000000 -1.111111
v 1.111111 0.382520 -1.111111
v 1.555556 0.007053 -1.111111
v 2.000000 0.000000 -1.111111
v -2.000000 0.000000 -1.555556
v -1.555556 0.000000 -1.555556
v -1.111111 0.007053 -1.555556
v -0.666667 1.314501 -1.555556
v -0.222222 0.382520 -1.555556
v 0.222222 0.382520 -1.555556
v 0.666667 1.314501 -1.555556
v 1.111111 0.007053 -1.555556
v 1.555556 0.000000 -1.555556
v 2.000000 0.000000 -1.555556
v -2.000000 0.000000 -2.000000
v -1.555556 0.000000 -2.000000
v -1.111111 0.000000 -2.000000
v -0.666667 0.000000 -2.000000
v -0.222222 0.000025 -2.000000
v 0.222222 0.000025 -2.000000
v 0.666667 0.000000 -2.000000
v 1.111111 0.000000 -2.000000
v 1.555556 0.000000 -2.000000
v 2.000000 0.000000 -2.000000
vt 0.390362 0.575964
vt 0.386381 0.587729
vt 0.386381 0.575964
vt 0.394343 0.575964
vt 0.390362 0.587729
vt 0.398325 0.575964
vt 0.394343 0.587729
vt 0.402306 0.587729
vt 0.398325 0.587729
vt 0.406288 0.575964
vt 0.402306 0.575964
vt 0.410269 0.575964
vt 0.406288 0.587729
vt 0.414250 0.587729
vt 0.410269 0.587729
vt 0.414250 0.575964
vt 0.418232 0.587729
vt 0.422213 0.575964
vt 0.418232 0.575964
vt 0.386381 0.599494
vt 0.390362 0.599494
vt 0.398325 0.599494
vt 0.394343 0.599494
vt 0.402306 0.599494
vt 0.410269 0.599494
vt 0.406288 0.599494
vt 0.414250 0.599494
vt 0.418232 0.599494
vt 0.422213 0.599494
vt 0.386381 0.611259
vt 0.394343 0.611259
vt 0.390362 0.611259
vt 0.398325 0.611259
vt 0.402306 0.611259
vt 0.406288 0.611259
vt 0.414250 0.611259
vt 0.410269 0.611259
vt 0.418232 0.611259
vt 0.422213 0.611259
vt 0.390362 0.623024
vt 0.386381 0.623024
vt 0.394343 0.623024
vt 0.398325 0.623024
vt 0.402306 0.623024
vt 0.410269 0.623024
vt 0.406288 0.623024
vt 0.418232 0.623024
vt 0.414250 0.623024
vt 0.386381 0.634789
vt 0.390362 0.634789
vt 0.394343 0.634789
vt 0.398325 0.634789
vt 0.402306 0.634789
vt 0.410269 0.634789
vt 0.406288 0.634789
vt 0.414250 0.634789
vt 0.422213 0.623024
vt 0.418232 0.634789
vt 0.386381 0.646554
vt 0.394343 0.646554
vt 0.390362 0.646554
vt 0.402306 0.646554
vt 0.398325 0.646554
vt 0.406288 0.646554
vt 0.410269 0.646554
vt 0.414250 0.646554
vt 0.422213 0.646554
vt 0.418232 0.646554
vt 0.390362 0.658318
vt 0.386381 0.658318
vt 0.394343 0.658318
vt 0.398325 0.658318
vt 0.402306 0.658318
vt 0.406288 0.658318
vt 0.410269 0.658318
vt 0.418232 0.658318
vt 0.414250 0.658318
vt 0.390362 0.670083
vt 0.386381 0.670083
vt 0.394343 0.670083
vt 0.398325 0.670083
vt 0.402306 0.670083
vt 0.406288 0.670083
vt 0.414250 0.670083
vt 0.410269 0.670083
vt 0.422213 0.658318
vt 0.418232 0.670083
vt 0.386381 0.681848
vt 0.394343 0.681848
vt 0.390362 0.681848
vt 0.398325 0.681848
vt 0.402306 0.681848
vt 0.410269 0.681848
vt 0.406288 0.681848
vt 0.414250 0.681848
vt 0.422213 0.670083
vt 0.418232 0.681848
vt 0.422213 0.587729
vt 0.422213 0.634789
vt 0.422213 0.681848
vn -0.0000 1.0000 0.0000
vn -0.0000 0.9999 0.0159
vn 0.5576 0.2659 0.7864
vn 0.0000 0.7580 0.6523
vn 0.6858 0.2331 0.6895
vn 0.0159 0.9997 0.0159
vn -0.0159 0.9997 0.0159
vn 0.5494 0.6383 0.5392
vn 0.5576 0.2659 -0.7864
vn 0.0000 0.7579 -0.6523
vn -0.2658 0.3088 -0.9133
vn 0.5422 0.6418 0.5422
vn -0.0159 0.9999 0.0000
vn 0.6895 0.2331 0.6858
vn 0.5464 0.6348 -0.5464
vn -0.9133 0.3088 -0.2658
vn -0.6523 0.7580 0.0000
vn 0.7864 0.2659 -0.5576
vn 0.0000 0.3183 0.9480
vn 0.6753 0.2967 0.6753
vn -0.6523 0.7579 -0.0000
vn 0.6523 0.7579 0.0000
vn -0.9480 0.3183 0.0000
vn 0.9480 0.3183 0.0000
vn 0.6523 0.7580 0.0000
vn 0.7864 0.2659 0.5576
vn 0.0000 0.3183 -0.9480
vn 0.6753 0.2967 -0.6753
vn -0.2624 0.3106 -0.9136
vn 0.5464 0.6348 0.5464
vn 0.5392 0.6383 0.5494
vn 0.6895 0.2331 -0.6858
vn -0.0159 0.9997 -0.0159
vn -0.9136 0.3106 -0.2624
vn 0.0000 0.7579 0.6523
vn 0.5422 0.6418 -0.5422
vn 0.0159 0.9997 -0.0159
vn -0.0000 0.9999 -0.0159
vn 0.0000 0.7580 -0.6523
vn 0.6858 0.2331 -0.6895
vn -0.6858 0.2331 0.6895
vn -0.5576 0.2659 0.7864
vn -0.5422 0.6418 0.5422
vn -0.6858 0.2331 -0.6895
vn -0.5576 0.2659 -0.7864
vn 0.9136 0.3106 0.2624
vn -0.6895 0.2331 0.6858
vn -0.5392 0.6383 -0.5494
vn -0.5464 0.6348 -0.5464
vn 0.2624 0.3106 0.9136
vn 0.0159 0.9999 0.0000
vn -0.7864 0.2659 -0.5576
vn -0.6753 0.2967 0.6753
vn -0.7864 0.2659 0.5576
vn -0.6753 0.2967 -0.6753
vn -0.6895 0.2331 -0.6858
vn 0.9133 0.3088 0.2658
vn -0.5464 0.6348 0.5464
vn -0.5422 0.6418 -0.5422
vn 0.2658 0.3088 0.9133
vn -0.5494 0.6383 -0.5392
s off
f 2/1/1 11/2/1 1/3/1
f 3/4/1 12/5/1 2/1/1
f 4/6/2 13/7/2 3/4/2
f 4/6/3 15/8/3 14/9/3
f 6/10/4 15/8/4 5/11/4
f 7/12/4 16/13/4 6/10/4
f 7/12/5 18/14/5 17/15/5
f 8/16/6 19/17/6 18/14/6
f 10/18/1 19/17/1 9/19/1
f 12/5/1 21/20/1 11/2/1
f 13/7/7 22/21/7 12/5/7
f 13/7/8 24/22/8 23/23/8
f 15/8/9 24/22/9 14/9/9
f 16/13/10 25/24/10 15/8/10
f 16/13/10 27/25/10 26/26/10
f 17/15/11 28/27/11 27/25/11
f 18/14/12 29/28/12 28/27/12
f 19/17/6 30/29/6 29/28/6
f 22/21/13 31/30/13 21/20/13
f 22/21/14 33/31/14 32/32/14
f 24/22/15 33/31/15 23/23/15
f 25/24/1 34/33/1 24/22/1
f 26/26/1 35/34/1 25/24/1
f 27/25/1 36/35/1 26/26/1
f 27/25/1 38/36/1 37/37/1
f 28/27/16 39/38/16 38/36/16
f 29/28/14 40/39/14 39/38/14
f 31/30/17 42/40/17 41/41/17
f 33/31/18 42/40/18 32/32/18
f 34/33/1 43/42/1 33/31/1
f 35/34/1 44/43/1 34/33/1
f 36/35/19 45/44/19 35/34/19
f 36/35/20 47/45/20 46/46/20
f 38/36/1 47/45/1 37/37/1
f 38/36/21 49/47/21 48/48/21
f 40/39/18 49/47/18 39/38/18
f 42/40/17 51/49/17 41/41/17
f 43/42/22 52/50/22 42/40/22
f 44/43/1 53/51/1 43/42/1
f 45/44/23 54/52/23 44/43/23
f 46/46/1 55/53/1 45/44/1
f 46/46/24 57/54/24 56/55/24
f 48/48/1 57/54/1 47/45/1
f 49/47/21 58/56/21 48/48/21
f 50/57/25 59/58/25 49/47/25
f 52/50/17 61/59/17 51/49/17
f 52/50/26 63/60/26 62/61/26
f 54/52/1 63/60/1 53/51/1
f 54/52/1 65/62/1 64/63/1
f 56/55/27 65/62/27 55/53/27
f 57/54/28 66/64/28 56/55/28
f 58/56/1 67/65/1 57/54/1
f 59/58/21 68/66/21 58/56/21
f 59/58/26 70/67/26 69/68/26
f 61/59/13 72/69/13 71/70/13
f 62/61/29 73/71/29 72/69/29
f 63/60/30 74/72/30 73/71/30
f 65/62/1 74/72/1 64/63/1
f 66/64/1 75/73/1 65/62/1
f 67/65/1 76/74/1 66/64/1
f 68/66/1 77/75/1 67/65/1
f 68/66/31 79/76/31 78/77/31
f 70/67/32 79/76/32 69/68/32
f 71/70/1 82/78/1 81/79/1
f 72/69/33 83/80/33 82/78/33
f 73/71/34 84/81/34 83/80/34
f 74/72/3 85/82/3 84/81/3
f 76/74/35 85/82/35 75/73/35
f 77/75/35 86/83/35 76/74/35
f 77/75/5 88/84/5 87/85/5
f 79/76/36 88/84/36 78/77/36
f 80/86/37 89/87/37 79/76/37
f 82/78/1 91/88/1 81/79/1
f 82/78/1 93/89/1 92/90/1
f 83/80/38 94/91/38 93/89/38
f 85/82/9 94/91/9 84/81/9
f 86/83/39 95/92/39 85/82/39
f 86/83/39 97/93/39 96/94/39
f 88/84/40 97/93/40 87/85/40
f 89/87/37 98/95/37 88/84/37
f 90/96/1 99/97/1 89/87/1
f 2/1/1 12/5/1 11/2/1
f 3/4/7 13/7/7 12/5/7
f 4/6/41 14/9/41 13/7/41
f 4/6/4 5/11/4 15/8/4
f 6/10/4 16/13/4 15/8/4
f 7/12/42 17/15/42 16/13/42
f 7/12/2 8/16/2 18/14/2
f 8/16/1 9/19/1 19/17/1
f 10/18/1 20/98/1 19/17/1
f 12/5/7 22/21/7 21/20/7
f 13/7/43 23/23/43 22/21/43
f 13/7/44 14/9/44 24/22/44
f 15/8/10 25/24/10 24/22/10
f 16/13/10 26/26/10 25/24/10
f 16/13/45 17/15/45 27/25/45
f 17/15/46 18/14/46 28/27/46
f 18/14/6 19/17/6 29/28/6
f 19/17/1 20/98/1 30/29/1
f 22/21/47 32/32/47 31/30/47
f 22/21/48 23/23/48 33/31/48
f 24/22/1 34/33/1 33/31/1
f 25/24/1 35/34/1 34/33/1
f 26/26/1 36/35/1 35/34/1
f 27/25/1 37/37/1 36/35/1
f 27/25/49 28/27/49 38/36/49
f 28/27/50 29/28/50 39/38/50
f 29/28/51 30/29/51 40/39/51
f 31/30/52 32/32/52 42/40/52
f 33/31/22 43/42/22 42/40/22
f 34/33/1 44/43/1 43/42/1
f 35/34/53 45/44/53 44/43/53
f 36/35/19 46/46/19 45/44/19
f 36/35/1 37/37/1 47/45/1
f 38/36/1 48/48/1 47/45/1
f 38/36/52 39/38/52 49/47/52
f 40/39/25 50/57/25 49/47/25
f 42/40/17 52/50/17 51/49/17
f 43/42/22 53/51/22 52/50/22
f 44/43/1 54/52/1 53/51/1
f 45/44/23 55/53/23 54/52/23
f 46/46/1 56/55/1 55/53/1
f 46/46/24 47/45/24 57/54/24
f 48/48/1 58/56/1 57/54/1
f 49/47/21 59/58/21 58/56/21
f 50/57/25 60/99/25 59/58/25
f 52/50/54 62/61/54 61/59/54
f 52/50/22 53/51/22 63/60/22
f 54/52/1 64/63/1 63/60/1
f 54/52/55 55/53/55 65/62/55
f 56/55/27 66/64/27 65/62/27
f 57/54/1 67/65/1 66/64/1
f 58/56/1 68/66/1 67/65/1
f 59/58/54 69/68/54 68/66/54
f 59/58/25 60/99/25 70/67/25
f 61/59/56 62/61/56 72/69/56
f 62/61/57 63/60/57 73/71/57
f 63/60/1 64/63/1 74/72/1
f 65/62/1 75/73/1 74/72/1
f 66/64/1 76/74/1 75/73/1
f 67/65/1 77/75/1 76/74/1
f 68/66/58 78/77/58 77/75/58
f 68/66/56 69/68/56 79/76/56
f 70/67/51 80/86/51 79/76/51
f 71/70/33 72/69/33 82/78/33
f 72/69/59 73/71/59 83/80/59
f 73/71/60 74/72/60 84/81/60
f 74/72/35 75/73/35 85/82/35
f 76/74/35 86/83/35 85/82/35
f 77/75/42 87/85/42 86/83/42
f 77/75/61 78/77/61 88/84/61
f 79/76/37 89/87/37 88/84/37
f 80/86/1 90/96/1 89/87/1
f 82/78/1 92/90/1 91/88/1
f 82/78/33 83/80/33 93/89/33
f 83/80/44 84/81/44 94/91/44
f 85/82/39 95/92/39 94/91/39
f 86/83/39 96/94/39 95/92/39
f 86/83/45 87/85/45 97/93/45
f 88/84/38 98/95/38 97/93/38
f 89/87/1 99/97/1 98/95/1
f 90/96/1 100/100/1 99/97/1
